<?xml version="1.0" encoding="UTF-8"?>
<session version="1.0">
<refactoring comment="Delete resource &apos;Chutes&apos;" deleteContents="true" description="Delete resource &apos;Chutes&apos;" element1="/Chutes" flags="7" id="org.eclipse.ltk.core.refactoring.delete.resources" resources="1" stamp="1397821465285"/>
</session>